[
	[0.7648284055011935, 0.7544827942830885, 0.7524467312375774, 0.7519722494144034, 0.7510747197139318, 0.7494769248491748, 0.7483982722974567, 0.7481860756506196, 0.7456480002618636, 0.7451602548299343, 0.7449070557010449, 0.7427935037899775, 0.7423870471621962, 0.7408201462678781, 0.740545658424031],
	[0.8226229455985731, 0.8214887923453993, 0.8136875757283755, 0.813563515770377, 0.8113214077861302, 0.8096835630671407, 0.8088719201584395, 0.8049033859732203, 0.8043346136287333, 0.8034695423791888, 0.7988773329063397, 0.795064205117902, 0.794847642003147, 0.7914615726386799, 0.7906705207650887],
	[0.7748803102646291, 0.7715569114998694, 0.7702060645669588, 0.7688854940911524, 0.76845825753321, 0.765360100381612, 0.7598722692540304, 0.7562053009794124, 0.7549306247937605, 0.7525643723927603, 0.75207878656902, 0.7505371791100789, 0.7494387209323256, 0.7480509429942456, 0.7476055140488657],
	[0.7946855124058959, 0.790015169236517, 0.7614256577008365, 0.760330237617304, 0.756511059008372, 0.746672949451465, 0.7464301629068503, 0.7443032733633235, 0.7433789579903943, 0.7405284646577754, 0.7379149005363085, 0.7374276843925894, 0.7316447271849779, 0.7270865697930396, 0.726230049004247],
	[0.8425132923770833, 0.8317800060661403, 0.8187255789667556, 0.8176533351515749, 0.815972910866473, 0.81558132582079, 0.8155001880050854, 0.8116350448828015, 0.8078673893816783, 0.802616075827693, 0.7982069001356554, 0.7972383346441997, 0.7945147643189843, 0.7940998001119401, 0.7929630028068871],
	[0.7699718730354981, 0.7607835634823118, 0.7465784562376463, 0.7361059121172858, 0.729275623462529, 0.7228069688121771, 0.7143854182385335, 0.7132103206140386, 0.7071049360577359, 0.7063520437875681, 0.7059766879234798, 0.7043774476555643, 0.6971162770644376, 0.6925750375965392, 0.6915674025678564],
	[0.8442454102165108, 0.8302698108729409, 0.8301203180385772, 0.8270439381908175, 0.8132377326967819, 0.783669583144028, 0.7824444164727387, 0.7680575260788721, 0.7620162089129348, 0.7564258876215093, 0.7544214716173046, 0.7534473319730053, 0.7515048594077596, 0.7511883446582913, 0.7379681669024906],
	[0.764191329451993, 0.7357787322597271, 0.7320248341891397, 0.7299905050580499, 0.7290777429459693, 0.7223418069055751, 0.718531098464115, 0.7122724322278328, 0.7029551560124517, 0.6996187244000229, 0.6948558157632515, 0.6907718749274767, 0.6904373021084075, 0.6897914514965529, 0.6816832437177301],
	[0.819689897668402, 0.7960815397256935, 0.786385144778775, 0.7828900077452968, 0.7742630627306121, 0.7641329207847073, 0.7635511512309016, 0.762863512027802, 0.7573203766141305, 0.7539894217183812, 0.7528092802192594, 0.7502141406378069, 0.7474623706703305, 0.7460277379523392, 0.7458999481858498],
	[0.7590549480632356, 0.7582410381021636, 0.7536089531630843, 0.7368751566433559, 0.7347189944580143, 0.7144565283015699, 0.6939123963966295, 0.6891496613108918, 0.6873418781195981, 0.683386638462554, 0.6805897794054041, 0.6773431117257408, 0.6757105283166088, 0.6707396958910915, 0.6704593344644856]
]